{
  "variable": {
    "region": {
      "default": "us-west-2"
    },
    "name": {
      "default": "wafflebot"
    }
  },
  "provider": {
    "aws": {
      "region": "${var.region}"
    }
  },
  "data": {
    "aws_caller_identity": {
      "self": {
      }
    },
    "aws_iam_policy_document": {
      "app": {
        "statement": [
          {
            "actions": [
              "logs:CreateLogGroup",
              "logs:CreateLogStream",
              "logs:PutLogEvents",
              "logs:DescribeLogStreams"
            ],
            "resources": ["arn:aws:logs:*:*:*"]
          }
        ]
      }
    }
  },
  "resource": {
    "aws_api_gateway_rest_api": {
      "app": {
        "name": "${var.name}",
        "description": "${var.name} API"
      }
    },
    "aws_api_gateway_resource": {
      "app": {
        "rest_api_id": "${aws_api_gateway_rest_api.app.id}",
        "parent_id": "${aws_api_gateway_rest_api.app.root_resource_id}",
        "path_part": "{wafflebot+}"
      }
    },
    "aws_api_gateway_method": {
      "app": {
        "rest_api_id": "${aws_api_gateway_rest_api.app.id}",
        "resource_id": "${aws_api_gateway_resource.app.id}",
        "http_method": "ANY",
        "authorization": "NONE"
      }
    }, 
    "aws_api_gateway_integration": {
      "app": {
        "rest_api_id": "${aws_api_gateway_rest_api.app.id}",
        "resource_id": "${aws_api_gateway_resource.app.id}",
        "http_method": "${aws_api_gateway_method.app.http_method}",
        "integration_http_method": "POST", 
        "type": "AWS_PROXY",
        "uri": "arn:aws:apigateway:${var.region}:lambda:path/2015-03-31/functions/arn:aws:lambda:${var.region}:${data.aws_caller_identity.self.account_id}:function:${aws_lambda_function.app.function_name}/invocations"
      }
    },
    "aws_api_gateway_deployment": {
      "app": {
        "depends_on": ["aws_api_gateway_method.app"],
        "rest_api_id": "${aws_api_gateway_rest_api.app.id}",
        "stage_name": "api"
      }
    },

    "aws_cloudwatch_log_group": {
      "app": {
        "name": "/aws/lambda/${var.name}",
        "retention_in_days": 7
      }
    },
    "aws_iam_role": {
      "app": {
        "name": "${var.name}",
        "assume_role_policy": "${file(\"assume_role_policy.json\")}"
      }
    },
    "aws_iam_policy":{
      "app": {
        "name": "${var.name}",
        "policy": "${data.aws_iam_policy_document.app.json}"
      }
    },
    "aws_iam_role_policy_attachment": {
      "app": {
        "role": "${aws_iam_role.app.name}",
        "policy_arn": "${aws_iam_policy.app.arn}"
      }
    },
    "aws_lambda_permission": {
      "app": {
        "statement_id": "${var.name}",
        "action": "lambda:InvokeFunction",
        "function_name": "${aws_lambda_function.app.function_name}",
        "principal": "apigateway.amazonaws.com"
      }
    },
    "aws_lambda_function":{
      "app": {
        "depends_on": ["aws_cloudwatch_log_group.app"],
        "filename": "../app.zip",
        "function_name": "${var.name}",
        "description": "A bot",
        "role": "${aws_iam_role.app.arn}",
        "handler": "dist/${var.name}.run",
        "source_code_hash": "${base64sha256(file(\"../app.zip\"))}",
        "memory_size": 128,
        "runtime": "nodejs4.3",
        "timeout": 10
      }
    }
  }
}
